{
  "director": "Menu",
  "background": "#000000",
  "showMouse": true,
  "layout": "default",
  "snapToGrid": {
    "enabled": false,
    "xSpacing": 50,
    "ySpacing": 50,
    "xOffset": 0,
    "yOffset": 0,
    "xCloseness": 10,
    "yCloseness": 10
  },
  "snapToGuides": {
    "enabled": true,
    "closeness": 5,
    "x": [
      
    ],
    "y": [
      
    ]
  },
  "snapToOthers": {
    "enabled": true,
    "xCloseness": 10,
    "yCloseness": 10
  },
  "snapRotation": {
    "enabled": true,
    "step": 15,
    "closeness": 15
  },
  "include": [
    
  ],
  "stages": [
    {
      "name": "glass",
      "actors": [
        {
          "costume": "text",
          "x": 288,
          "y": 468,
          "text": "   Canvern Quest\n\n(c) Nick Robinson 2019",
          "textOutlineColor": "#00000000",
          "autoPositionAlignmentX": 0.5,
          "autoPositionAlignmentY": 1
        },
        {
          "costume": "text",
          "x": 36,
          "y": 360,
          "text": "Press (1) to start."
        }
      ]
    }
  ]
}